TI AIDA-2003 Ver 2.01rF

Feb. 10 2008
Creator: Polar Blue 21


"TI AIDA" for Grand Prix Legends.

Installation
-------------

Run TrackInstall.exe

Have fun.

--------------
Thanks especially to;
Magnus Thome :Track map
BOBO BOZU     
umrk          :Graphics (sky&horiz)
GPLEA        	:Track Creation Tools 
Papyrus  
--------------
Polar Blue 21.
http://www8.ocn.ne.jp/~polarb21/index.html
Comments to polarblue21@gamma.ocn.ne.jp




